<?xml version="1.0" encoding="utf-8"?>
<!-- Generator: Adobe Illustrator 22.1.0, SVG Export Plug-In . SVG Version: 6.00 Build 0)  -->
<svg version="1.1" xmlns="http://www.w3.org/2000/svg" xmlns:xlink="http://www.w3.org/1999/xlink" x="0px" y="0px"
	 viewBox="0 0 200 250" style="enable-background:new 0 0 200 250;" xml:space="preserve">
<style type="text/css">
	.st0{fill:#939598;}
	.st1{fill:#FDCD9A;}
	.st2{fill:#01A79D;}
	.st3{fill:#F8A075;}
	.st4{fill:#61391D;}
	.st5{fill:#424143;}
	.st6{fill:#231F20;}
</style>
<g id="clothes">
</g>
<g id="Skin">
</g>
<g id="eyes">
</g>
<g id="nose">
	<path class="st3" d="M95.3,158.2h9.4c1.6,0,2,2.2,0.5,2.7l-4.7,1.8c-0.3,0.1-0.7,0.1-1,0l-4.7-1.8
		C93.3,160.4,93.7,158.2,95.3,158.2z M197.2,2.8h2.8V0h-2.8V2.8z M0,0h2.8v2.8H0V0z M197.2,247.2h2.8v2.8h-2.8V247.2z M0,247.2h2.8
		v2.8H0V247.2z"/>
</g>
<g id="hair">
</g>
<g id="mouth">
</g>
<g id="glasses">
</g>
</svg>
